--------------------------------------------------------------------------
MPI_ABORT was invoked on rank 7 in communicator MPI_COMM_WORLD
with errorcode 16.

NOTE: invoking MPI_ABORT causes Open MPI to kill all MPI processes.
You may or may not see output from other processes, depending on
exactly when Open MPI kills them.
--------------------------------------------------------------------------
[instance-300:12898] PMIX ERROR: UNREACHABLE in file ../../../src/server/pmix_server.c at line 2079
[instance-300:12898] PMIX ERROR: UNREACHABLE in file ../../../src/server/pmix_server.c at line 2079
[instance-300:12898] PMIX ERROR: UNREACHABLE in file ../../../src/server/pmix_server.c at line 2079
[instance-300:12898] PMIX ERROR: UNREACHABLE in file ../../../src/server/pmix_server.c at line 2079
[instance-300:12898] PMIX ERROR: UNREACHABLE in file ../../../src/server/pmix_server.c at line 2079
[instance-302:11063] PMIX ERROR: UNREACHABLE in file ../../../src/server/pmix_server.c at line 2079
[instance-300:12898] PMIX ERROR: UNREACHABLE in file ../../../src/server/pmix_server.c at line 2079
[instance-302:11063] PMIX ERROR: UNREACHABLE in file ../../../src/server/pmix_server.c at line 2079
[instance-302:11063] PMIX ERROR: UNREACHABLE in file ../../../src/server/pmix_server.c at line 2079
[instance-300:12898] PMIX ERROR: UNREACHABLE in file ../../../src/server/pmix_server.c at line 2079
[instance-302:11063] PMIX ERROR: UNREACHABLE in file ../../../src/server/pmix_server.c at line 2079
[instance-300:12898] PMIX ERROR: UNREACHABLE in file ../../../src/server/pmix_server.c at line 2079
[instance-302:11063] PMIX ERROR: UNREACHABLE in file ../../../src/server/pmix_server.c at line 2079
[instance-300:12898] PMIX ERROR: UNREACHABLE in file ../../../src/server/pmix_server.c at line 2079
[instance-302:11063] PMIX ERROR: UNREACHABLE in file ../../../src/server/pmix_server.c at line 2079
[instance-300:12898] PMIX ERROR: UNREACHABLE in file ../../../src/server/pmix_server.c at line 2079
[instance-302:11063] PMIX ERROR: UNREACHABLE in file ../../../src/server/pmix_server.c at line 2079
[instance-300:12898] PMIX ERROR: UNREACHABLE in file ../../../src/server/pmix_server.c at line 2079
[instance-302:11063] PMIX ERROR: UNREACHABLE in file ../../../src/server/pmix_server.c at line 2079
[instance-302:11063] PMIX ERROR: UNREACHABLE in file ../../../src/server/pmix_server.c at line 2079
[instance-300:12898] PMIX ERROR: UNREACHABLE in file ../../../src/server/pmix_server.c at line 2079
[instance-302:11063] PMIX ERROR: UNREACHABLE in file ../../../src/server/pmix_server.c at line 2079
[instance-306:11103] PMIX ERROR: UNREACHABLE in file ../../../src/server/pmix_server.c at line 2079
[instance-306:11103] PMIX ERROR: UNREACHABLE in file ../../../src/server/pmix_server.c at line 2079
[instance-306:11103] PMIX ERROR: UNREACHABLE in file ../../../src/server/pmix_server.c at line 2079
[instance-302:11063] PMIX ERROR: UNREACHABLE in file ../../../src/server/pmix_server.c at line 2079
[instance-300:12898] PMIX ERROR: UNREACHABLE in file ../../../src/server/pmix_server.c at line 2079
[instance-306:11103] PMIX ERROR: UNREACHABLE in file ../../../src/server/pmix_server.c at line 2079
[instance-306:11103] PMIX ERROR: UNREACHABLE in file ../../../src/server/pmix_server.c at line 2079
[instance-302:11063] PMIX ERROR: UNREACHABLE in file ../../../src/server/pmix_server.c at line 2079
[instance-300:12898] PMIX ERROR: UNREACHABLE in file ../../../src/server/pmix_server.c at line 2079
[instance-306:11103] PMIX ERROR: UNREACHABLE in file ../../../src/server/pmix_server.c at line 2079
[instance-300:12898] PMIX ERROR: UNREACHABLE in file ../../../src/server/pmix_server.c at line 2079
[instance-302:11063] PMIX ERROR: UNREACHABLE in file ../../../src/server/pmix_server.c at line 2079
[instance-302:11063] PMIX ERROR: UNREACHABLE in file ../../../src/server/pmix_server.c at line 2079
[instance-306:11103] PMIX ERROR: UNREACHABLE in file ../../../src/server/pmix_server.c at line 2079
[instance-302:11063] PMIX ERROR: UNREACHABLE in file ../../../src/server/pmix_server.c at line 2079
[instance-300:12898] PMIX ERROR: UNREACHABLE in file ../../../src/server/pmix_server.c at line 2079
[instance-306:11103] PMIX ERROR: UNREACHABLE in file ../../../src/server/pmix_server.c at line 2079
[instance-302:11063] PMIX ERROR: UNREACHABLE in file ../../../src/server/pmix_server.c at line 2079
[instance-300:12898] PMIX ERROR: UNREACHABLE in file ../../../src/server/pmix_server.c at line 2079
[instance-302:11063] PMIX ERROR: UNREACHABLE in file ../../../src/server/pmix_server.c at line 2079
[instance-302:11063] PMIX ERROR: UNREACHABLE in file ../../../src/server/pmix_server.c at line 2079
[instance-300:12898] PMIX ERROR: UNREACHABLE in file ../../../src/server/pmix_server.c at line 2079
[instance-302:11063] PMIX ERROR: UNREACHABLE in file ../../../src/server/pmix_server.c at line 2079
[instance-300:12898] PMIX ERROR: UNREACHABLE in file ../../../src/server/pmix_server.c at line 2079
[instance-302:11063] PMIX ERROR: UNREACHABLE in file ../../../src/server/pmix_server.c at line 2079
[instance-306:11103] PMIX ERROR: UNREACHABLE in file ../../../src/server/pmix_server.c at line 2079
[instance-306:11103] PMIX ERROR: UNREACHABLE in file ../../../src/server/pmix_server.c at line 2079
[instance-306:11103] PMIX ERROR: UNREACHABLE in file ../../../src/server/pmix_server.c at line 2079
[instance-302:11063] PMIX ERROR: UNREACHABLE in file ../../../src/server/pmix_server.c at line 2079
[instance-300:12898] PMIX ERROR: UNREACHABLE in file ../../../src/server/pmix_server.c at line 2079
[instance-302:11063] PMIX ERROR: UNREACHABLE in file ../../../src/server/pmix_server.c at line 2079
[instance-306:11103] PMIX ERROR: UNREACHABLE in file ../../../src/server/pmix_server.c at line 2079
[instance-300:12898] PMIX ERROR: UNREACHABLE in file ../../../src/server/pmix_server.c at line 2079
[instance-302:11063] PMIX ERROR: UNREACHABLE in file ../../../src/server/pmix_server.c at line 2079
[instance-300:12898] PMIX ERROR: UNREACHABLE in file ../../../src/server/pmix_server.c at line 2079
[instance-302:11063] PMIX ERROR: UNREACHABLE in file ../../../src/server/pmix_server.c at line 2079
[instance-305:11028] PMIX ERROR: UNREACHABLE in file ../../../src/server/pmix_server.c at line 2079
[instance-305:11028] PMIX ERROR: UNREACHABLE in file ../../../src/server/pmix_server.c at line 2079
[instance-306:11103] PMIX ERROR: UNREACHABLE in file ../../../src/server/pmix_server.c at line 2079
[instance-302:11063] PMIX ERROR: UNREACHABLE in file ../../../src/server/pmix_server.c at line 2079
[instance-300:12898] PMIX ERROR: UNREACHABLE in file ../../../src/server/pmix_server.c at line 2079
[instance-305:11028] PMIX ERROR: UNREACHABLE in file ../../../src/server/pmix_server.c at line 2079
[instance-305:11028] PMIX ERROR: UNREACHABLE in file ../../../src/server/pmix_server.c at line 2079
[instance-306:11103] PMIX ERROR: UNREACHABLE in file ../../../src/server/pmix_server.c at line 2079
[instance-302:11063] PMIX ERROR: UNREACHABLE in file ../../../src/server/pmix_server.c at line 2079
[instance-305:11028] PMIX ERROR: UNREACHABLE in file ../../../src/server/pmix_server.c at line 2079
[instance-300:12898] PMIX ERROR: UNREACHABLE in file ../../../src/server/pmix_server.c at line 2079
[instance-306:11103] PMIX ERROR: UNREACHABLE in file ../../../src/server/pmix_server.c at line 2079
[instance-306:11103] PMIX ERROR: UNREACHABLE in file ../../../src/server/pmix_server.c at line 2079
[instance-305:11028] PMIX ERROR: UNREACHABLE in file ../../../src/server/pmix_server.c at line 2079
[instance-306:11103] PMIX ERROR: UNREACHABLE in file ../../../src/server/pmix_server.c at line 2079
[instance-305:11028] PMIX ERROR: UNREACHABLE in file ../../../src/server/pmix_server.c at line 2079
[instance-305:11028] PMIX ERROR: UNREACHABLE in file ../../../src/server/pmix_server.c at line 2079
[instance-300:12898] PMIX ERROR: UNREACHABLE in file ../../../src/server/pmix_server.c at line 2079
[instance-305:11028] PMIX ERROR: UNREACHABLE in file ../../../src/server/pmix_server.c at line 2079
[instance-306:11103] PMIX ERROR: UNREACHABLE in file ../../../src/server/pmix_server.c at line 2079
[instance-300:12898] PMIX ERROR: UNREACHABLE in file ../../../src/server/pmix_server.c at line 2079
[instance-306:11103] PMIX ERROR: UNREACHABLE in file ../../../src/server/pmix_server.c at line 2079
[instance-306:11103] PMIX ERROR: UNREACHABLE in file ../../../src/server/pmix_server.c at line 2079
[instance-307:10972] PMIX ERROR: UNREACHABLE in file ../../../src/server/pmix_server.c at line 2079
[instance-307:10972] PMIX ERROR: UNREACHABLE in file ../../../src/server/pmix_server.c at line 2079
[instance-305:11028] PMIX ERROR: UNREACHABLE in file ../../../src/server/pmix_server.c at line 2079
[instance-306:11103] PMIX ERROR: UNREACHABLE in file ../../../src/server/pmix_server.c at line 2079
[instance-305:11028] PMIX ERROR: UNREACHABLE in file ../../../src/server/pmix_server.c at line 2079
[instance-305:11028] PMIX ERROR: UNREACHABLE in file ../../../src/server/pmix_server.c at line 2079
[instance-306:11103] PMIX ERROR: UNREACHABLE in file ../../../src/server/pmix_server.c at line 2079
[instance-307:10972] PMIX ERROR: UNREACHABLE in file ../../../src/server/pmix_server.c at line 2079
[instance-307:10972] PMIX ERROR: UNREACHABLE in file ../../../src/server/pmix_server.c at line 2079
[instance-307:10972] PMIX ERROR: UNREACHABLE in file ../../../src/server/pmix_server.c at line 2079
[instance-305:11028] PMIX ERROR: UNREACHABLE in file ../../../src/server/pmix_server.c at line 2079
[instance-307:10972] PMIX ERROR: UNREACHABLE in file ../../../src/server/pmix_server.c at line 2079
[instance-306:11103] PMIX ERROR: UNREACHABLE in file ../../../src/server/pmix_server.c at line 2079
[instance-307:10972] PMIX ERROR: UNREACHABLE in file ../../../src/server/pmix_server.c at line 2079
[instance-305:11028] PMIX ERROR: UNREACHABLE in file ../../../src/server/pmix_server.c at line 2079
[instance-306:11103] PMIX ERROR: UNREACHABLE in file ../../../src/server/pmix_server.c at line 2079
[instance-307:10972] PMIX ERROR: UNREACHABLE in file ../../../src/server/pmix_server.c at line 2079
[instance-305:11028] PMIX ERROR: UNREACHABLE in file ../../../src/server/pmix_server.c at line 2079
[instance-307:10972] PMIX ERROR: UNREACHABLE in file ../../../src/server/pmix_server.c at line 2079
[instance-305:11028] PMIX ERROR: UNREACHABLE in file ../../../src/server/pmix_server.c at line 2079
[instance-307:10972] PMIX ERROR: UNREACHABLE in file ../../../src/server/pmix_server.c at line 2079
[instance-307:10972] PMIX ERROR: UNREACHABLE in file ../../../src/server/pmix_server.c at line 2079
[instance-305:11028] PMIX ERROR: UNREACHABLE in file ../../../src/server/pmix_server.c at line 2079
[instance-305:11028] PMIX ERROR: UNREACHABLE in file ../../../src/server/pmix_server.c at line 2079
[instance-307:10972] PMIX ERROR: UNREACHABLE in file ../../../src/server/pmix_server.c at line 2079
[instance-305:11028] PMIX ERROR: UNREACHABLE in file ../../../src/server/pmix_server.c at line 2079
[instance-307:10972] PMIX ERROR: UNREACHABLE in file ../../../src/server/pmix_server.c at line 2079
[instance-305:11028] PMIX ERROR: UNREACHABLE in file ../../../src/server/pmix_server.c at line 2079
[instance-307:10972] PMIX ERROR: UNREACHABLE in file ../../../src/server/pmix_server.c at line 2079
[instance-307:10972] PMIX ERROR: UNREACHABLE in file ../../../src/server/pmix_server.c at line 2079
[instance-305:11028] PMIX ERROR: UNREACHABLE in file ../../../src/server/pmix_server.c at line 2079
[instance-305:11028] PMIX ERROR: UNREACHABLE in file ../../../src/server/pmix_server.c at line 2079
[instance-305:11028] PMIX ERROR: UNREACHABLE in file ../../../src/server/pmix_server.c at line 2079
[instance-307:10972] PMIX ERROR: UNREACHABLE in file ../../../src/server/pmix_server.c at line 2079
[instance-307:10972] PMIX ERROR: UNREACHABLE in file ../../../src/server/pmix_server.c at line 2079
[instance-305:11028] PMIX ERROR: UNREACHABLE in file ../../../src/server/pmix_server.c at line 2079
[instance-307:10972] PMIX ERROR: UNREACHABLE in file ../../../src/server/pmix_server.c at line 2079
[instance-305:11028] PMIX ERROR: UNREACHABLE in file ../../../src/server/pmix_server.c at line 2079
[instance-307:10972] PMIX ERROR: UNREACHABLE in file ../../../src/server/pmix_server.c at line 2079
[instance-307:10972] PMIX ERROR: UNREACHABLE in file ../../../src/server/pmix_server.c at line 2079
[instance-305:11028] PMIX ERROR: UNREACHABLE in file ../../../src/server/pmix_server.c at line 2079
[instance-307:10972] PMIX ERROR: UNREACHABLE in file ../../../src/server/pmix_server.c at line 2079
[instance-307:10972] PMIX ERROR: UNREACHABLE in file ../../../src/server/pmix_server.c at line 2079
[instance-307:10972] PMIX ERROR: UNREACHABLE in file ../../../src/server/pmix_server.c at line 2079
[instance-307:10972] PMIX ERROR: UNREACHABLE in file ../../../src/server/pmix_server.c at line 2079
[instance-307:10972] PMIX ERROR: UNREACHABLE in file ../../../src/server/pmix_server.c at line 2079
[instance-307:10972] PMIX ERROR: UNREACHABLE in file ../../../src/server/pmix_server.c at line 2079
[instance-307:10972] PMIX ERROR: UNREACHABLE in file ../../../src/server/pmix_server.c at line 2079
[instance-304:11022] PMIX ERROR: UNREACHABLE in file ../../../src/server/pmix_server.c at line 2079
[instance-304:11022] PMIX ERROR: UNREACHABLE in file ../../../src/server/pmix_server.c at line 2079
[instance-304:11022] PMIX ERROR: UNREACHABLE in file ../../../src/server/pmix_server.c at line 2079
[instance-304:11022] PMIX ERROR: UNREACHABLE in file ../../../src/server/pmix_server.c at line 2079
[instance-304:11022] PMIX ERROR: UNREACHABLE in file ../../../src/server/pmix_server.c at line 2079
[instance-304:11022] PMIX ERROR: UNREACHABLE in file ../../../src/server/pmix_server.c at line 2079
[instance-304:11022] PMIX ERROR: UNREACHABLE in file ../../../src/server/pmix_server.c at line 2079
[instance-304:11022] PMIX ERROR: UNREACHABLE in file ../../../src/server/pmix_server.c at line 2079
[instance-304:11022] PMIX ERROR: UNREACHABLE in file ../../../src/server/pmix_server.c at line 2079
[instance-304:11022] PMIX ERROR: UNREACHABLE in file ../../../src/server/pmix_server.c at line 2079
[instance-304:11022] PMIX ERROR: UNREACHABLE in file ../../../src/server/pmix_server.c at line 2079
[instance-304:11022] PMIX ERROR: UNREACHABLE in file ../../../src/server/pmix_server.c at line 2079
[instance-304:11022] PMIX ERROR: UNREACHABLE in file ../../../src/server/pmix_server.c at line 2079
[instance-304:11022] PMIX ERROR: UNREACHABLE in file ../../../src/server/pmix_server.c at line 2079
[instance-304:11022] PMIX ERROR: UNREACHABLE in file ../../../src/server/pmix_server.c at line 2079
[instance-304:11022] PMIX ERROR: UNREACHABLE in file ../../../src/server/pmix_server.c at line 2079
[instance-304:11022] PMIX ERROR: UNREACHABLE in file ../../../src/server/pmix_server.c at line 2079
[instance-304:11022] PMIX ERROR: UNREACHABLE in file ../../../src/server/pmix_server.c at line 2079
[instance-304:11022] PMIX ERROR: UNREACHABLE in file ../../../src/server/pmix_server.c at line 2079
[instance-304:11022] PMIX ERROR: UNREACHABLE in file ../../../src/server/pmix_server.c at line 2079
[instance-304:11022] PMIX ERROR: UNREACHABLE in file ../../../src/server/pmix_server.c at line 2079
[instance-304:11022] PMIX ERROR: UNREACHABLE in file ../../../src/server/pmix_server.c at line 2079
[instance-304:11022] PMIX ERROR: UNREACHABLE in file ../../../src/server/pmix_server.c at line 2079
[instance-304:11022] PMIX ERROR: UNREACHABLE in file ../../../src/server/pmix_server.c at line 2079
[instance-304:11022] PMIX ERROR: UNREACHABLE in file ../../../src/server/pmix_server.c at line 2079
[instance-304:11022] PMIX ERROR: UNREACHABLE in file ../../../src/server/pmix_server.c at line 2079
[instance-304:11022] PMIX ERROR: UNREACHABLE in file ../../../src/server/pmix_server.c at line 2079
[instance-303:11145] PMIX ERROR: UNREACHABLE in file ../../../src/server/pmix_server.c at line 2079
[instance-303:11145] PMIX ERROR: UNREACHABLE in file ../../../src/server/pmix_server.c at line 2079
[instance-303:11145] PMIX ERROR: UNREACHABLE in file ../../../src/server/pmix_server.c at line 2079
[instance-303:11145] PMIX ERROR: UNREACHABLE in file ../../../src/server/pmix_server.c at line 2079
[instance-303:11145] PMIX ERROR: UNREACHABLE in file ../../../src/server/pmix_server.c at line 2079
[instance-303:11145] PMIX ERROR: UNREACHABLE in file ../../../src/server/pmix_server.c at line 2079
[instance-303:11145] PMIX ERROR: UNREACHABLE in file ../../../src/server/pmix_server.c at line 2079
[instance-303:11145] PMIX ERROR: UNREACHABLE in file ../../../src/server/pmix_server.c at line 2079
[instance-303:11145] PMIX ERROR: UNREACHABLE in file ../../../src/server/pmix_server.c at line 2079
[instance-303:11145] PMIX ERROR: UNREACHABLE in file ../../../src/server/pmix_server.c at line 2079
[instance-303:11145] PMIX ERROR: UNREACHABLE in file ../../../src/server/pmix_server.c at line 2079
[instance-303:11145] PMIX ERROR: UNREACHABLE in file ../../../src/server/pmix_server.c at line 2079
[instance-303:11145] PMIX ERROR: UNREACHABLE in file ../../../src/server/pmix_server.c at line 2079
[instance-303:11145] PMIX ERROR: UNREACHABLE in file ../../../src/server/pmix_server.c at line 2079
[instance-303:11145] PMIX ERROR: UNREACHABLE in file ../../../src/server/pmix_server.c at line 2079
[instance-303:11145] PMIX ERROR: UNREACHABLE in file ../../../src/server/pmix_server.c at line 2079
[instance-303:11145] PMIX ERROR: UNREACHABLE in file ../../../src/server/pmix_server.c at line 2079
[instance-303:11145] PMIX ERROR: UNREACHABLE in file ../../../src/server/pmix_server.c at line 2079
[instance-303:11145] PMIX ERROR: UNREACHABLE in file ../../../src/server/pmix_server.c at line 2079
[instance-303:11145] PMIX ERROR: UNREACHABLE in file ../../../src/server/pmix_server.c at line 2079
[instance-303:11145] PMIX ERROR: UNREACHABLE in file ../../../src/server/pmix_server.c at line 2079
[instance-303:11145] PMIX ERROR: UNREACHABLE in file ../../../src/server/pmix_server.c at line 2079
[instance-303:11145] PMIX ERROR: UNREACHABLE in file ../../../src/server/pmix_server.c at line 2079
[instance-303:11145] PMIX ERROR: UNREACHABLE in file ../../../src/server/pmix_server.c at line 2079
[instance-303:11145] PMIX ERROR: UNREACHABLE in file ../../../src/server/pmix_server.c at line 2079
[instance-303:11145] PMIX ERROR: UNREACHABLE in file ../../../src/server/pmix_server.c at line 2079
[instance-303:11145] PMIX ERROR: UNREACHABLE in file ../../../src/server/pmix_server.c at line 2079
[instance-303:11145] PMIX ERROR: UNREACHABLE in file ../../../src/server/pmix_server.c at line 2079
[instance-301:10969] PMIX ERROR: UNREACHABLE in file ../../../src/server/pmix_server.c at line 2079
[instance-301:10969] PMIX ERROR: UNREACHABLE in file ../../../src/server/pmix_server.c at line 2079
[instance-301:10969] PMIX ERROR: UNREACHABLE in file ../../../src/server/pmix_server.c at line 2079
[instance-301:10969] PMIX ERROR: UNREACHABLE in file ../../../src/server/pmix_server.c at line 2079
[instance-301:10969] PMIX ERROR: UNREACHABLE in file ../../../src/server/pmix_server.c at line 2079
[instance-301:10969] PMIX ERROR: UNREACHABLE in file ../../../src/server/pmix_server.c at line 2079
[instance-301:10969] PMIX ERROR: UNREACHABLE in file ../../../src/server/pmix_server.c at line 2079
[instance-301:10969] PMIX ERROR: UNREACHABLE in file ../../../src/server/pmix_server.c at line 2079
[instance-301:10969] PMIX ERROR: UNREACHABLE in file ../../../src/server/pmix_server.c at line 2079
[instance-301:10969] PMIX ERROR: UNREACHABLE in file ../../../src/server/pmix_server.c at line 2079
[instance-301:10969] PMIX ERROR: UNREACHABLE in file ../../../src/server/pmix_server.c at line 2079
[instance-301:10969] PMIX ERROR: UNREACHABLE in file ../../../src/server/pmix_server.c at line 2079
[instance-301:10969] PMIX ERROR: UNREACHABLE in file ../../../src/server/pmix_server.c at line 2079
[instance-301:10969] PMIX ERROR: UNREACHABLE in file ../../../src/server/pmix_server.c at line 2079
[instance-301:10969] PMIX ERROR: UNREACHABLE in file ../../../src/server/pmix_server.c at line 2079
[instance-301:10969] PMIX ERROR: UNREACHABLE in file ../../../src/server/pmix_server.c at line 2079
[instance-301:10969] PMIX ERROR: UNREACHABLE in file ../../../src/server/pmix_server.c at line 2079
[instance-301:10969] PMIX ERROR: UNREACHABLE in file ../../../src/server/pmix_server.c at line 2079
[instance-301:10969] PMIX ERROR: UNREACHABLE in file ../../../src/server/pmix_server.c at line 2079
[instance-301:10969] PMIX ERROR: UNREACHABLE in file ../../../src/server/pmix_server.c at line 2079
[instance-301:10969] PMIX ERROR: UNREACHABLE in file ../../../src/server/pmix_server.c at line 2079
[instance-301:10969] PMIX ERROR: UNREACHABLE in file ../../../src/server/pmix_server.c at line 2079
[instance-301:10969] PMIX ERROR: UNREACHABLE in file ../../../src/server/pmix_server.c at line 2079
[instance-301:10969] PMIX ERROR: UNREACHABLE in file ../../../src/server/pmix_server.c at line 2079
[instance-301:10969] PMIX ERROR: UNREACHABLE in file ../../../src/server/pmix_server.c at line 2079
[instance-301:10969] PMIX ERROR: UNREACHABLE in file ../../../src/server/pmix_server.c at line 2079
[instance-301:10969] PMIX ERROR: UNREACHABLE in file ../../../src/server/pmix_server.c at line 2079
[instance-301:10969] PMIX ERROR: UNREACHABLE in file ../../../src/server/pmix_server.c at line 2079
[instance-301:10969] PMIX ERROR: UNREACHABLE in file ../../../src/server/pmix_server.c at line 2079
[instance-301:10969] PMIX ERROR: UNREACHABLE in file ../../../src/server/pmix_server.c at line 2079
[instance-300:12898] 239 more processes have sent help message help-mpi-api.txt / mpi-abort
[instance-300:12898] Set MCA parameter "orte_base_help_aggregate" to 0 to see all help / error messages
