Warning: Permanently added '10.128.0.23' (ECDSA) to the list of known hosts.
Warning: Permanently added '10.128.0.15' (ECDSA) to the list of known hosts.
Warning: Permanently added '10.128.0.14' (ECDSA) to the list of known hosts.
Warning: Permanently added '10.128.0.17' (ECDSA) to the list of known hosts.
Warning: Permanently added '10.128.0.25' (ECDSA) to the list of known hosts.
Warning: Permanently added '10.128.0.24' (ECDSA) to the list of known hosts.
Warning: Permanently added '10.128.0.27' (ECDSA) to the list of known hosts.
Warning: Permanently added '10.128.0.31' (ECDSA) to the list of known hosts.
Warning: Permanently added '10.128.0.29' (ECDSA) to the list of known hosts.
Warning: Permanently added '10.128.0.30' (ECDSA) to the list of known hosts.
Warning: Permanently added '10.128.0.32' (ECDSA) to the list of known hosts.
Warning: Permanently added '10.128.0.37' (ECDSA) to the list of known hosts.
Warning: Permanently added '10.128.0.46' (ECDSA) to the list of known hosts.
Warning: Permanently added '10.128.0.40' (ECDSA) to the list of known hosts.
Warning: Permanently added '10.128.0.35' (ECDSA) to the list of known hosts.
Warning: Permanently added '10.128.0.41' (ECDSA) to the list of known hosts.
Warning: Permanently added '10.128.0.49' (ECDSA) to the list of known hosts.
Warning: Permanently added '10.128.0.45' (ECDSA) to the list of known hosts.
Warning: Permanently added '10.128.0.53' (ECDSA) to the list of known hosts.
Warning: Permanently added '10.128.0.43' (ECDSA) to the list of known hosts.
Warning: Permanently added '10.128.0.47' (ECDSA) to the list of known hosts.
Warning: Permanently added '10.128.0.50' (ECDSA) to the list of known hosts.
Warning: Permanently added '10.128.0.39' (ECDSA) to the list of known hosts.
Warning: Permanently added '10.128.0.38' (ECDSA) to the list of known hosts.
Warning: Permanently added '10.128.0.48' (ECDSA) to the list of known hosts.
Warning: Permanently added '10.128.0.51' (ECDSA) to the list of known hosts.
Warning: Permanently added '10.128.0.33' (ECDSA) to the list of known hosts.
Warning: Permanently added '10.128.0.34' (ECDSA) to the list of known hosts.
Warning: Permanently added '10.128.0.28' (ECDSA) to the list of known hosts.
Warning: Permanently added '10.128.0.36' (ECDSA) to the list of known hosts.
Warning: Permanently added '10.128.0.44' (ECDSA) to the list of known hosts.
